<?xml version="1.0" encoding="UTF-8" standalone="no"?>
<svg
   xmlns:dc="http://purl.org/dc/elements/1.1/"
   xmlns:cc="http://creativecommons.org/ns#"
   xmlns:rdf="http://www.w3.org/1999/02/22-rdf-syntax-ns#"
   xmlns:svg="http://www.w3.org/2000/svg"
   xmlns="http://www.w3.org/2000/svg"
   id="svg1199"
   version="1.1"
   viewBox="0 0 31.75 31.75"
   height="31.75mm"
   width="31.75mm">
  <defs
     id="defs1193" />
  <metadata
     id="metadata1196">
    <rdf:RDF>
      <cc:Work
         rdf:about="">
        <dc:format>image/svg+xml</dc:format>
        <dc:type
           rdf:resource="http://purl.org/dc/dcmitype/StillImage" />
        <dc:title></dc:title>
      </cc:Work>
    </rdf:RDF>
  </metadata>
  <g
     transform="translate(-51.634321,-24.74328)"
     id="layer1">
    <path
       id="path1182"
       d="m 63.621569,56.270582 c -1.722379,-0.295825 -4.473887,-1.219629 -5.26286,-1.76697 -1.155097,-0.801338 -0.317197,-0.89723 1.477203,-0.169053 0.937946,0.380625 2.440893,0.85741 3.339874,1.059515 1.935645,0.435169 5.316808,0.481399 6.983858,0.09544 0.653804,-0.151348 1.96394,-0.569245 2.911398,-0.928667 1.151481,-0.436803 1.668803,-0.76667 1.560221,-0.99488 -0.571551,-1.20131 -0.571315,-1.195389 -0.04111,-1.021301 0.286927,0.09419 0.993309,0.171302 1.569745,0.171302 0.96451,0 1.033453,0.04979 0.864869,0.624529 -0.100753,0.343487 -0.321342,0.935482 -0.490207,1.31553 -0.278424,0.626634 -0.350288,0.653978 -0.771585,0.293489 -0.421286,-0.360489 -0.634676,-0.331934 -2.290965,0.306599 -1.00453,0.387275 -2.535109,0.83242 -3.401269,0.989218 -1.770285,0.320477 -4.664139,0.33179 -6.44916,0.02518 z m -11.965205,-13.641771 0.07773,-9.832892 1.708823,-0.487348 1.708811,-0.487348 v -3.284672 c 0,-1.806578 0.1103,-3.284682 0.244986,-3.284682 0.134741,0 2.691258,0.744516 5.681147,1.65448 l 5.436162,1.65448 6.541456,-1.908775 c 3.597798,-1.049827 6.654507,-1.908774 6.792697,-1.908774 0.138179,0 0.288241,1.686668 0.333484,3.748155 l 0.08222,3.748166 1.56022,0.479601 1.560221,0.479601 v 9.658659 c 0,8.285414 -0.06065,9.638764 -0.426352,9.518671 -0.234495,-0.07699 -3.822285,-1.059793 -7.972876,-2.183992 l -7.546536,-2.043995 -7.548501,2.156783 c -4.15167,1.18623 -7.720186,2.156783 -7.930026,2.156783 -0.305336,0 -0.36599,-1.963482 -0.303741,-9.832901 z m 14.761856,4.854486 c 0.174189,-0.149051 0.04167,-17.717074 -0.134764,-17.873641 -0.05729,-0.05084 -3.220599,0.807422 -7.029563,1.907227 l -6.925372,1.999658 -0.07829,8.771705 c -0.04302,4.824432 -0.0146,8.913768 0.06335,9.087414 0.100753,0.224567 2.133613,-0.271527 7.041323,-1.718318 3.794856,-1.11872 6.973367,-2.097039 7.06336,-2.174045 z M 54.557417,46.717002 c 0,-0.08256 0.576976,-0.740585 1.28219,-1.462216 1.967062,-2.012864 3.309467,-3.699792 4.332463,-5.444377 0.670124,-1.142816 0.816031,-1.589364 0.519287,-1.589364 -0.62387,0 -2.96647,0.746351 -3.152936,1.004519 -0.09008,0.124658 -0.50254,0.299419 -0.916693,0.388362 -0.545908,0.117247 -0.903553,0.01932 -1.30051,-0.355982 -0.431024,-0.407545 -0.459869,-0.536874 -0.135595,-0.607815 1.060399,-0.231986 5.880014,-1.66462 6.859821,-2.039083 0.604203,-0.230911 1.168879,-0.322458 1.254851,-0.203432 0.08593,0.119016 -0.403787,1.176503 -1.088333,2.349979 -0.684547,1.173465 -1.29459,2.221428 -1.35566,2.328795 -0.0611,0.107367 0.825297,0.549091 1.969679,0.981606 1.257546,0.475296 2.137039,0.970707 2.223089,1.252278 0.07829,0.256227 0.07672,0.522064 -0.0034,0.590736 -0.200832,0.17185 -1.486448,-0.318161 -2.909883,-1.109089 -0.65386,-0.363286 -1.344146,-0.742065 -1.534015,-0.841734 -0.211918,-0.111241 -0.783918,0.334702 -1.481438,1.154974 -1.588762,1.86834 -3.676109,3.752009 -4.157724,3.752009 -0.222813,0 -0.405112,-0.06757 -0.405112,-0.150166 z M 57.42674,36.230219 c -0.270517,-0.255774 -0.491847,-0.570466 -0.491847,-0.699324 0,-0.128848 0.300899,-0.245471 0.668675,-0.259157 0.367765,-0.01365 1.237025,-0.114134 1.931703,-0.223222 1.153974,-0.18121 1.263039,-0.152867 1.263039,0.32834 0,0.289673 -0.297226,0.704812 -0.660498,0.922545 -0.363272,0.217723 -1.011213,0.395858 -1.439868,0.395858 -0.428654,0 -1.000699,-0.209265 -1.271204,-0.46504 z m 22.619669,10.064773 c -0.0729,-0.174829 -0.917558,-2.765425 -1.877047,-5.756887 L 76.424855,35.099091 75.41472,34.737938 c -0.555567,-0.198626 -1.061465,-0.317219 -1.12422,-0.263521 -0.06279,0.05373 -1.064341,2.0916 -2.225751,4.528676 -1.161421,2.437085 -2.173465,4.559979 -2.249001,4.717555 -0.07559,0.157567 0.192553,0.357346 0.595745,0.443934 0.403202,0.0866 0.917974,0.218146 1.143943,0.292345 0.268888,0.08833 0.541819,-0.174953 0.789815,-0.761806 0.237853,-0.562845 0.57337,-0.89672 0.901137,-0.89672 0.649402,0 3.328844,0.75306 3.799585,1.067877 0.191543,0.128089 0.436034,0.677487 0.543324,1.220878 0.150703,0.763268 0.375673,1.044579 0.989086,1.236775 1.119525,0.350772 1.622211,0.340863 1.468026,-0.02893 z m -4.9832,-5.149283 c -1.16679,-0.351695 -1.224794,-0.656583 -0.433092,-2.276549 0.35915,-0.734886 0.552849,-0.905678 0.721018,-0.635746 0.299563,0.480822 0.999902,3.04295 0.860005,3.146232 -0.05931,0.04373 -0.575853,-0.06151 -1.147931,-0.233937 z m 4.45778,-12.348684 c 0,-2.267159 -0.09413,-3.033021 -0.371482,-3.022603 -0.204314,0.0077 -2.836851,0.732647 -5.85008,1.611047 l -5.478597,1.597101 3.992666,1.073134 c 2.195975,0.590217 4.728208,1.280228 5.627188,1.53335 0.898992,0.253122 1.734825,0.411688 1.857413,0.352377 0.122589,-0.0593 0.222892,-1.474288 0.222892,-3.144406 z"
       style="fill:#808080;stroke-width:0.2749064" />
  </g>
</svg>
